…
### 打印输出

 

```R
> require(tidyverse)
> tibble(
+     a = lubridate::now() + runif(1e3) * 86400,
+     b = lubridate::today() + runif(1e3) * 30,
+     c = 1:1e3,
+     d = runif(1e3),
+     e = sample(letters, 1e3, replace = TRUE)
+ )
# A tibble: 1,000 x 5
                     a          b     c          d     e
                <dttm>     <date> <int>      <dbl> <chr>
 1 2017-11-18 15:34:33 2017-11-29     1 0.67316945     j
 2 2017-11-18 08:14:13 2017-11-20     2 0.37123387     q
 3 2017-11-17 21:30:13 2017-11-27     3 0.62118747     v
 4 2017-11-18 14:25:56 2017-12-16     4 0.05463553     d
 5 2017-11-17 22:47:24 2017-12-12     5 0.51881040     h
 6 2017-11-17 16:19:12 2017-12-09     6 0.03022423     d
 7 2017-11-18 00:41:48 2017-12-13     7 0.17127418     v
 8 2017-11-17 16:41:40 2017-12-01     8 0.42216380     l
 9 2017-11-18 15:44:46 2017-12-12     9 0.34529504     e
10 2017-11-17 23:38:13 2017-12-16    10 0.58544749     p
# ... with 990 more rows
```
**Tibbles有一个非常精确的方法，它只展示前10行数据，并且所有的列都会适配屏幕。**这样在处理大型数据时更加方便，而且，每一列都会报告它的类型。

 

如果不想要默认的这种输出方式，我们可以通过`print()`函数的`n`与`width`选项控制显示的行和宽度。`width = Inf`会显示所有列：

```R
> tibble(
+     a = lubridate::now() + runif(1e3) * 86400,
+     b = lubridate::today() + runif(1e3) * 30,
+     c = 1:1e3,
+     d = runif(1e3),
+     e = sample(letters, 1e3, replace = TRUE)
+ ) %>% print(n=20, width=Inf)
# A tibble: 1,000 x 5
                     a          b     c         d     e
                <dttm>     <date> <int>     <dbl> <chr>
 1 2017-11-18 00:34:08 2017-11-29     1 0.1639318     i
 2 2017-11-17 19:42:21 2017-11-30     2 0.2544355     b
 3 2017-11-18 16:09:00 2017-12-11     3 0.7345556     u
 4 2017-11-18 04:30:14 2017-12-07     4 0.2494946     n
 5 2017-11-18 05:54:08 2017-11-23     5 0.1666868     m
 6 2017-11-17 22:09:00 2017-12-15     6 0.4188294     g
 7 2017-11-18 09:01:39 2017-12-01     7 0.2267510     l
 8 2017-11-18 07:10:33 2017-12-11     8 0.7943061     l
 9 2017-11-18 13:46:35 2017-12-14     9 0.9832414     h
10 2017-11-17 18:36:46 2017-12-10    10 0.8545212     m
11 2017-11-18 10:49:32 2017-11-17    11 0.9460041     c
12 2017-11-18 02:57:14 2017-12-01    12 0.9911525     q
13 2017-11-18 16:24:18 2017-12-16    13 0.2692637     g
14 2017-11-17 18:57:07 2017-12-01    14 0.3437629     l
15 2017-11-18 08:50:36 2017-12-04    15 0.1135036     q
16 2017-11-18 09:20:08 2017-12-16    16 0.8855373     v
17 2017-11-18 02:50:50 2017-12-05    17 0.4273206     j
18 2017-11-18 11:19:09 2017-11-26    18 0.7004148     x
19 2017-11-18 14:47:48 2017-11-20    19 0.5334430     v
20 2017-11-18 12:45:52 2017-12-07    20 0.7103081     v
# ... with 980 more rows
```
…
